C:\Users\Daro\Desktop\JAI\JSoupLibrary\JSoupLibrary\src\main\java\PrintLinksOfAnURL.java
C:\Users\Daro\Desktop\JAI\JSoupLibrary\JSoupLibrary\src\main\java\PrintImagesOfAnURL.java
C:\Users\Daro\Desktop\JAI\JSoupLibrary\JSoupLibrary\src\main\java\PrintFormParameters.java
C:\Users\Daro\Desktop\JAI\JSoupLibrary\JSoupLibrary\src\main\java\PrintMetaDataOfAnURL.java
C:\Users\Daro\Desktop\JAI\JSoupLibrary\JSoupLibrary\src\main\java\PrintTitleFromHTMLFile.java
C:\Users\Daro\Desktop\JAI\JSoupLibrary\JSoupLibrary\src\main\java\GetTitleOfAnURL.java
